{
	"additionalNodes": [],
	"additionalParameters": {
		"root": {
			"height": 88,
			"width": 180
		}
	},
	"inputs": [],
	"outputs": [],
	"properties": {
		"1gNANHf37pRApnvQPD4wiLalKSlAZA8R": {
			"height": 90,
			"title": "luaCondition",
			"width": 299,
			"x": 853,
			"y": -145
		},
		"3PSncrLxTBgfL80FM9b8h17Wli8Bp7ZN": {
			"height": 94,
			"title": "store",
			"width": 353,
			"x": 538,
			"y": -348
		},
		"4lWTciIqSVqVihlHLo5kGQ08zqeGmMSG": {
			"height": 92,
			"title": "store",
			"width": 252,
			"x": 2387,
			"y": -22
		},
		"7bWAdl8Z5gBCiYtFKNpdQndHPlp7PUer": {
			"height": 132,
			"title": "formation.moveCustomGroup",
			"width": 746,
			"x": 1542,
			"y": 1190
		},
		"8li3gCQdxW3ei4LsopHIvsOdYjeJPUtd": {
			"height": 94,
			"title": "store",
			"width": 439,
			"x": 1556,
			"y": 367
		},
		"DTya3cTuky7rz1cCoyoZ9LCsvHFUDaWB": {
			"height": 94,
			"title": "store",
			"width": 591,
			"x": 1543,
			"y": 876
		},
		"Df4aXx2YTkMKwFEpMhE1vOGXgbELG64s": {
			"height": 94,
			"title": "store",
			"width": 439,
			"x": 1554,
			"y": 569
		},
		"DtBccOLlusBBaLvQ2HSA2CPtSKTCiiQ2": {
			"height": 60,
			"title": "repeat",
			"width": 131,
			"x": 882,
			"y": 342
		},
		"E77qOAc0ZnVlLxjCre92jvXyrFYtf20E": {
			"height": 90,
			"title": "luaCondition",
			"width": 337,
			"x": 1741,
			"y": -54
		},
		"FAskCq37dei2NOQhD9sDtekJuZOQiw6Z": {
			"height": 94,
			"title": "store",
			"width": 619,
			"x": 1544,
			"y": 1078
		},
		"FRxjBoMuVLOAfgPeryxNyvI8HgeqEOmA": {
			"height": 54,
			"title": "success",
			"width": 132,
			"x": 2238,
			"y": 693
		},
		"GqS8nrNRqsz3mHGdsJNG5tqLbbrqIJTU": {
			"height": 70,
			"title": "parallel",
			"width": 202,
			"x": 1447,
			"y": -138
		},
		"HL9pu3nFDS39sJ3Oc24nG2RsZclI7SIm": {
			"height": 64,
			"title": "sequence",
			"width": 186,
			"x": 257,
			"y": 8
		},
		"ITy1K9HKbIg0HZW7w6ITv7YUqOqcVzDu": {
			"height": 94,
			"title": "Debug wind node",
			"width": 316,
			"x": 2379,
			"y": -338
		},
		"NKiagzTBYpJAEQTWlO1TeBqAn5ouqy9A": {
			"height": 88,
			"title": "luaCondition",
			"width": 619,
			"x": 1550,
			"y": 676
		},
		"OxMJIasMe3r2vZhvY52zAGvC59dVCRky": {
			"height": 54,
			"title": "success",
			"width": 132,
			"x": 1300,
			"y": 419
		},
		"QAv9Y6NlNGdEOUiv9Nisvuv3SNLwnfcD": {
			"height": 90,
			"title": "Common.relativeMove",
			"width": 225,
			"x": 2386,
			"y": 97
		},
		"QVie4pQLkjHAbYgVrk0BmRdwocMVDZ1q": {
			"height": 94,
			"title": "store",
			"width": 439,
			"x": 1554,
			"y": 464
		},
		"TQofz9pVbx4sA4qWW5zDsB73aphg0OIc": {
			"height": 92,
			"title": "store",
			"width": 218,
			"x": 534,
			"y": -135
		},
		"UF9wUVRijEXYG9Ytqw62Q3paJ7eaMsjp": {
			"height": 72,
			"title": "wait",
			"width": 131,
			"x": 2156,
			"y": -151
		},
		"WyYo2VRIk4dZBAGezALaSjPSefXTcrfS": {
			"height": 94,
			"title": "store",
			"width": 336,
			"x": 538,
			"y": -250
		},
		"Y2sYNQQYTtkmLVuJfcOdETzyxpXfv0lC": {
			"height": 94,
			"title": "store",
			"width": 353,
			"x": 1947,
			"y": -287
		},
		"ZiW4yOuXh37k71yuEclqo69L39yXfg8F": {
			"height": 94,
			"title": "store",
			"width": 305,
			"x": 1548,
			"y": 776
		},
		"abvelEAkxJKidskqU6aC4wKH7kWDOKma": {
			"height": 60,
			"title": "repeat",
			"width": 131,
			"x": 1240,
			"y": -134
		},
		"eEwkDKVGHMMIIJKHnHC3Sa86WBGV9S0A": {
			"height": 94,
			"title": "store",
			"width": 159,
			"x": 2381,
			"y": -236
		},
		"fMRX8330WdgAqxXb46dFcFDsIuGKv9v1": {
			"height": 60,
			"title": "sequence",
			"width": 143,
			"x": 1296,
			"y": 342
		},
		"fMf5hXs2COhsiWrrXiPeq6gKrlKitPNo": {
			"height": 90,
			"title": "luaCondition",
			"width": 194,
			"x": 1064,
			"y": 329
		},
		"i5U4PXtdmDObagpgsg63Ep2afMZWMjCb": {
			"height": 70,
			"title": "roleSplit",
			"width": 202,
			"x": 585,
			"y": 6
		},
		"jVFaygySqj5O2PxazsOlDyQRyIvJx8km": {
			"height": 60,
			"title": "sequence",
			"width": 143,
			"x": 2161,
			"y": 87
		},
		"lNeLJxkJnV2Aimhr9961DfHOl20A1E2d": {
			"height": 94,
			"title": "store",
			"width": 591,
			"x": 1547,
			"y": 968
		},
		"lSqE3VRyL7VZJ5ze5QGacGOvacUsSKqR": {
			"height": 92,
			"title": "store",
			"width": 244,
			"x": 2384,
			"y": -124
		},
		"mMtBGiNU7gzCz60jnQ2oPxheVsBLAbOh": {
			"height": 98,
			"title": "store",
			"width": 858,
			"x": 2429,
			"y": 564
		},
		"q9Y0mAELftUjp9sJoccW4vEt5SAGOi7C": {
			"height": 60,
			"title": "repeat",
			"width": 131,
			"x": 1748,
			"y": -275
		},
		"qGJYNdgOYRajh2rwVMKOxthC1akzqoxm": {
			"height": 60,
			"title": "sequence",
			"width": 143,
			"x": 2234,
			"y": 631
		},
		"tERgy8UVG6Ln9i24zBnp1fefTSF1lRnq": {
			"height": 94,
			"title": "store",
			"width": 336,
			"x": 2430,
			"y": 666
		}
	},
	"roles": [ {
		"categories": [ "nota_lorenc_hlaa_labs.Leader" ],
		"name": "Leader"
	}, {
		"categories": [],
		"name": "Pawns"
	} ],
	"root": {
		"children": [ {
			"children": [],
			"id": "3PSncrLxTBgfL80FM9b8h17Wli8Bp7ZN",
			"nodeType": "luaCommand",
			"parameters": [ {
				"name": "var",
				"value": "leaderPosition"
			}, {
				"name": "value",
				"value": "nota_lorenc_hlaa_labs.PositionOfLeader()"
			}, {
				"name": "scriptName",
				"value": "store"
			} ],
			"scriptName": "store"
		}, {
			"children": [],
			"id": "WyYo2VRIk4dZBAGezALaSjPSefXTcrfS",
			"nodeType": "luaCommand",
			"parameters": [ {
				"name": "var",
				"value": "formationDefinition"
			}, {
				"name": "value",
				"value": "formation.Definition(\"wedge\")"
			}, {
				"name": "scriptName",
				"value": "store"
			} ],
			"scriptName": "store"
		}, {
			"children": [],
			"id": "TQofz9pVbx4sA4qWW5zDsB73aphg0OIc",
			"nodeType": "luaCommand",
			"parameters": [ {
				"name": "var",
				"value": "lastCalculatedHeading"
			}, {
				"name": "value",
				"value": "0"
			}, {
				"name": "scriptName",
				"value": "store"
			} ],
			"scriptName": "store"
		}, {
			"children": [ {
				"children": [ {
					"children": [ {
						"children": [ {
							"children": [ {
								"children": [],
								"id": "Y2sYNQQYTtkmLVuJfcOdETzyxpXfv0lC",
								"nodeType": "luaCommand",
								"parameters": [ {
									"name": "var",
									"value": "leaderPosition"
								}, {
									"name": "value",
									"value": "nota_lorenc_hlaa_labs.PositionOfLeader()"
								}, {
									"name": "scriptName",
									"value": "store"
								} ],
								"scriptName": "store"
							} ],
							"id": "q9Y0mAELftUjp9sJoccW4vEt5SAGOi7C",
							"nodeType": "repeat",
							"parameters": []
						}, {
							"children": [ {
								"children": [],
								"id": "UF9wUVRijEXYG9Ytqw62Q3paJ7eaMsjp",
								"nodeType": "wait",
								"parameters": [ {
									"name": "time",
									"value": 10
								} ]
							}, {
								"children": [ {
									"children": [],
									"id": "ITy1K9HKbIg0HZW7w6ITv7YUqOqcVzDu",
									"nodeType": "luaCommand",
									"parameters": [ {
										"name": "var",
										"value": "_"
									}, {
										"name": "value",
										"value": "nota_lorenc_hlaa_labs.WindDebug()"
									}, {
										"name": "scriptName",
										"value": "store"
									} ],
									"scriptName": "store"
								}, {
									"children": [],
									"id": "eEwkDKVGHMMIIJKHnHC3Sa86WBGV9S0A",
									"nodeType": "luaCommand",
									"parameters": [ {
										"name": "var",
										"value": "windData"
									}, {
										"name": "value",
										"value": "map.Wind()"
									}, {
										"name": "scriptName",
										"value": "store"
									} ],
									"scriptName": "store"
								}, {
									"children": [],
									"id": "lSqE3VRyL7VZJ5ze5QGacGOvacUsSKqR",
									"nodeType": "luaCommand",
									"parameters": [ {
										"name": "var",
										"value": "x"
									}, {
										"name": "value",
										"value": "windData.normDirX * 300"
									}, {
										"name": "scriptName",
										"value": "store"
									} ],
									"scriptName": "store"
								}, {
									"children": [],
									"id": "4lWTciIqSVqVihlHLo5kGQ08zqeGmMSG",
									"nodeType": "luaCommand",
									"parameters": [ {
										"name": "var",
										"value": "z"
									}, {
										"name": "value",
										"value": "windData.normDirZ * 300"
									}, {
										"name": "scriptName",
										"value": "store"
									} ],
									"scriptName": "store"
								}, {
									"children": [],
									"id": "QAv9Y6NlNGdEOUiv9Nisvuv3SNLwnfcD",
									"nodeType": "luaCommand",
									"parameters": [ {
										"name": "dist",
										"value": "{x = x, z = z}"
									}, {
										"name": "fight",
										"value": "false"
									}, {
										"name": "scriptName",
										"value": "Common.relativeMove"
									} ],
									"scriptName": "Common.relativeMove"
								} ],
								"id": "jVFaygySqj5O2PxazsOlDyQRyIvJx8km",
								"nodeType": "sequence",
								"parameters": []
							} ],
							"id": "E77qOAc0ZnVlLxjCre92jvXyrFYtf20E",
							"nodeType": "luaCondition",
							"parameters": [ {
								"name": "expression",
								"value": "nota_lorenc_hlaa_labs.LeaderTooAhead(400)"
							}, {
								"name": "repeat",
								"value": "true"
							} ]
						} ],
						"id": "GqS8nrNRqsz3mHGdsJNG5tqLbbrqIJTU",
						"nodeType": "parallel",
						"parameters": [ {
							"name": "mode",
							"value": "any-success"
						} ]
					} ],
					"id": "abvelEAkxJKidskqU6aC4wKH7kWDOKma",
					"nodeType": "repeat",
					"parameters": []
				} ],
				"id": "1gNANHf37pRApnvQPD4wiLalKSlAZA8R",
				"nodeType": "luaCondition",
				"parameters": [ {
					"name": "expression",
					"value": "nota_lorenc_hlaa_labs.LeaderInGroup()"
				}, {
					"name": "repeat",
					"value": "true"
				} ]
			}, {
				"children": [ {
					"children": [ {
						"children": [ {
							"children": [],
							"id": "8li3gCQdxW3ei4LsopHIvsOdYjeJPUtd",
							"nodeType": "luaCommand",
							"parameters": [ {
								"name": "var",
								"value": "pawnsPosition"
							}, {
								"name": "value",
								"value": " core.Position()"
							}, {
								"name": "scriptName",
								"value": "store"
							} ],
							"scriptName": "store"
						}, {
							"children": [],
							"id": "QVie4pQLkjHAbYgVrk0BmRdwocMVDZ1q",
							"nodeType": "luaCommand",
							"parameters": [ {
								"name": "var",
								"value": "directionOfTravel"
							}, {
								"name": "value",
								"value": "leaderPosition - pawnsPosition"
							}, {
								"name": "scriptName",
								"value": "store"
							} ],
							"scriptName": "store"
						}, {
							"children": [],
							"id": "Df4aXx2YTkMKwFEpMhE1vOGXgbELG64s",
							"nodeType": "luaCommand",
							"parameters": [ {
								"name": "var",
								"value": "newWantedHeading"
							}, {
								"name": "value",
								"value": "directionOfTravel:ToHeading()"
							}, {
								"name": "scriptName",
								"value": "store"
							} ],
							"scriptName": "store"
						}, {
							"children": [ {
								"children": [ {
									"children": [],
									"id": "mMtBGiNU7gzCz60jnQ2oPxheVsBLAbOh",
									"nodeType": "luaCommand",
									"parameters": [ {
										"name": "var",
										"value": "relativeFormation"
									}, {
										"name": "value",
										"value": "formation.StaticTransform(formationDefinition.positions, newWantedHeading, nil, formationDefinition.defaults.spacing)"
									}, {
										"name": "scriptName",
										"value": "store"
									} ],
									"scriptName": "store"
								}, {
									"children": [],
									"id": "tERgy8UVG6Ln9i24zBnp1fefTSF1lRnq",
									"nodeType": "luaCommand",
									"parameters": [ {
										"name": "var",
										"value": "lastCalculatedHeading"
									}, {
										"name": "value",
										"value": "newWantedHeading"
									}, {
										"name": "scriptName",
										"value": "store"
									} ],
									"scriptName": "store"
								} ],
								"id": "qGJYNdgOYRajh2rwVMKOxthC1akzqoxm",
								"nodeType": "sequence",
								"parameters": []
							}, {
								"children": [],
								"id": "FRxjBoMuVLOAfgPeryxNyvI8HgeqEOmA",
								"nodeType": "success",
								"parameters": []
							} ],
							"id": "NKiagzTBYpJAEQTWlO1TeBqAn5ouqy9A",
							"nodeType": "luaCondition",
							"parameters": [ {
								"name": "expression",
								"value": "(math.abs(newWantedHeading - lastCalculatedHeading) > 30) or (relativeFormation == nil)"
							}, {
								"name": "repeat",
								"value": "true"
							} ]
						}, {
							"children": [],
							"id": "ZiW4yOuXh37k71yuEclqo69L39yXfg8F",
							"nodeType": "luaCommand",
							"parameters": [ {
								"name": "var",
								"value": "group"
							}, {
								"name": "value",
								"value": "nota_lorenc_hlaa_labs.GetGroup()"
							}, {
								"name": "scriptName",
								"value": "store"
							} ],
							"scriptName": "store"
						}, {
							"children": [],
							"id": "DTya3cTuky7rz1cCoyoZ9LCsvHFUDaWB",
							"nodeType": "luaCommand",
							"parameters": [ {
								"name": "var",
								"value": "xDirPawnsNorm"
							}, {
								"name": "value",
								"value": "directionOfTravel.x / math.sqrt(directionOfTravel.x^2 + directionOfTravel.z^2)"
							}, {
								"name": "scriptName",
								"value": "store"
							} ],
							"scriptName": "store"
						}, {
							"children": [],
							"id": "lNeLJxkJnV2Aimhr9961DfHOl20A1E2d",
							"nodeType": "luaCommand",
							"parameters": [ {
								"name": "var",
								"value": "zDirPawnsNorm"
							}, {
								"name": "value",
								"value": "directionOfTravel.z / math.sqrt(directionOfTravel.x^2 + directionOfTravel.z^2)"
							}, {
								"name": "scriptName",
								"value": "store"
							} ],
							"scriptName": "store"
						}, {
							"children": [],
							"id": "FAskCq37dei2NOQhD9sDtekJuZOQiw6Z",
							"nodeType": "luaCommand",
							"parameters": [ {
								"name": "var",
								"value": "targetPositionOfPawns"
							}, {
								"name": "value",
								"value": "Vec3(leaderPosition.x - xDirPawnsNorm, nil, leaderPosition.z - zDirPawnsNorm)"
							}, {
								"name": "scriptName",
								"value": "store"
							} ],
							"scriptName": "store"
						}, {
							"children": [],
							"id": "7bWAdl8Z5gBCiYtFKNpdQndHPlp7PUer",
							"nodeType": "luaCommand",
							"parameters": [ {
								"name": "groupDefintion",
								"value": "group"
							}, {
								"name": "position",
								"value": "targetPositionOfPawns"
							}, {
								"name": "formation",
								"value": "relativeFormation"
							}, {
								"name": "fight",
								"value": "false"
							}, {
								"name": "scriptName",
								"value": "formation.moveCustomGroup"
							} ],
							"scriptName": "formation.moveCustomGroup"
						} ],
						"id": "fMRX8330WdgAqxXb46dFcFDsIuGKv9v1",
						"nodeType": "sequence",
						"parameters": []
					}, {
						"children": [],
						"id": "OxMJIasMe3r2vZhvY52zAGvC59dVCRky",
						"nodeType": "success",
						"parameters": []
					} ],
					"id": "fMf5hXs2COhsiWrrXiPeq6gKrlKitPNo",
					"nodeType": "luaCondition",
					"parameters": [ {
						"name": "expression",
						"value": "#units > 0"
					}, {
						"name": "repeat",
						"value": "false"
					} ]
				} ],
				"id": "DtBccOLlusBBaLvQ2HSA2CPtSKTCiiQ2",
				"nodeType": "repeat",
				"parameters": []
			} ],
			"id": "i5U4PXtdmDObagpgsg63Ep2afMZWMjCb",
			"nodeType": "roleSplit",
			"parameters": [ {
				"name": "mode",
				"value": "any-success"
			} ]
		} ],
		"id": "HL9pu3nFDS39sJ3Oc24nG2RsZclI7SIm",
		"nodeType": "sequence",
		"parameters": []
	}
}